<svg width="24" height="16" viewBox="0 0 24 16" fill="none" xmlns="http://www.w3.org/2000/svg">
<path d="M23.4906 15.3251H1.23149C1.01198 15.3251 0.833984 15.1474 0.833984 14.9282V0.639362C0.833984 0.420169 1.01198 0.242432 1.23149 0.242432H23.4906C23.7101 0.242432 23.8881 0.420169 23.8881 0.639362V14.9282C23.8881 15.1474 23.7101 15.3251 23.4906 15.3251Z" fill="#F5F5F5"/>
<path d="M23.8881 1.40268H0.833984V0.639357C0.833984 0.420167 1.01198 0.242432 1.23149 0.242432H23.4906C23.7101 0.242432 23.8881 0.420167 23.8881 0.639357L23.8881 1.40268Z" fill="#FF4B55"/>
<path d="M23.8881 4.88367H0.833984V6.04387H23.8881V4.88367Z" fill="#FF4B55"/>
<path d="M23.8881 2.56299H0.833984V3.72321H23.8881V2.56299Z" fill="#FF4B55"/>
<path d="M23.8881 8.36398H1.23149C1.01198 8.36398 0.833984 8.18625 0.833984 7.96706V7.20374H23.8881V8.36398Z" fill="#FF4B55"/>
<path d="M23.8881 11.845H0.833984V13.0052H23.8881V11.845Z" fill="#FF4B55"/>
<path d="M23.4906 15.3253H1.23149C1.01198 15.3253 0.833984 15.1475 0.833984 14.9283V14.165H23.8881V14.9284C23.8881 15.1476 23.7101 15.3253 23.4906 15.3253Z" fill="#FF4B55"/>
<path d="M23.8881 9.52441H0.833984V10.6846H23.8881V9.52441Z" fill="#FF4B55"/>
<path d="M11.1686 0.242432H1.23149C1.01198 0.242432 0.833984 0.420124 0.833984 0.639317V7.96688C0.833984 8.18608 1.01198 8.36382 1.23149 8.36382H11.1686C11.3881 8.36382 11.5661 8.18608 11.5661 7.96688V0.639317C11.5661 0.420124 11.3881 0.242432 11.1686 0.242432Z" fill="#41479B"/>
<path d="M1.95056 1.15337L2.03846 1.41662L2.31635 1.41873C2.35234 1.41905 2.36723 1.46487 2.3383 1.48621L2.11476 1.65108L2.19862 1.91563C2.2095 1.94986 2.17041 1.97825 2.14112 1.95732L1.91507 1.796L1.68901 1.95736C1.65972 1.97825 1.62072 1.9499 1.63151 1.91567L1.71537 1.65112L1.49183 1.48625C1.4629 1.46487 1.47779 1.41909 1.51378 1.41878L1.79167 1.41667L1.87957 1.15342C1.89091 1.11928 1.93913 1.11928 1.95056 1.15337Z" fill="#F5F5F5"/>
<path d="M1.95056 2.53127L2.03846 2.79451L2.31635 2.79663C2.35234 2.79694 2.36723 2.84276 2.3383 2.8641L2.11476 3.02896L2.19862 3.29351C2.2095 3.32774 2.17041 3.35613 2.14112 3.3352L1.91507 3.17388L1.68901 3.33524C1.65972 3.35613 1.62072 3.32779 1.63151 3.29356L1.71537 3.02901L1.49183 2.86414C1.4629 2.84276 1.47779 2.79699 1.51378 2.79667L1.79167 2.79456L1.87957 2.53131C1.89091 2.49722 1.93913 2.49722 1.95056 2.53127Z" fill="#F5F5F5"/>
<path d="M1.95056 3.9103L2.03846 4.17355L2.31635 4.17567C2.35234 4.17598 2.36723 4.2218 2.3383 4.24314L2.11476 4.40801L2.19862 4.67257C2.2095 4.7068 2.17041 4.73519 2.14112 4.71426L1.91507 4.55294L1.68901 4.7143C1.65972 4.73519 1.62072 4.70685 1.63151 4.67261L1.71537 4.40806L1.49183 4.24319C1.4629 4.2218 1.47779 4.17602 1.51378 4.17571L1.79167 4.1736L1.87957 3.91034C1.89091 3.87625 1.93913 3.87625 1.95056 3.9103Z" fill="#F5F5F5"/>
<path d="M1.95056 5.28826L2.03846 5.55151L2.31635 5.55362C2.35234 5.55394 2.36723 5.59976 2.3383 5.6211L2.11476 5.78596L2.19862 6.05051C2.2095 6.08475 2.17041 6.11314 2.14112 6.0922L1.91507 5.93088L1.68901 6.09225C1.65972 6.11314 1.62072 6.08479 1.63151 6.05056L1.71537 5.78601L1.49183 5.62114C1.4629 5.59976 1.47779 5.55398 1.51378 5.55367L1.79167 5.55156L1.87957 5.28831C1.89091 5.25417 1.93913 5.25417 1.95056 5.28826Z" fill="#F5F5F5"/>
<path d="M1.95056 6.66671L2.03846 6.92996L2.31635 6.93207C2.35234 6.93239 2.36723 6.97821 2.3383 6.99955L2.11476 7.16441L2.19862 7.42896C2.2095 7.46319 2.17041 7.49159 2.14112 7.47065L1.91507 7.30933L1.68901 7.4707C1.65972 7.49159 1.62072 7.46324 1.63151 7.42901L1.71537 7.16446L1.49183 6.99959C1.4629 6.97821 1.47779 6.93243 1.51378 6.93212L1.79167 6.93001L1.87957 6.66676C1.89091 6.63257 1.93913 6.63257 1.95056 6.66671Z" fill="#F5F5F5"/>
<path d="M3.02185 1.82888L3.10975 2.09213L3.38764 2.09424C3.42363 2.09456 3.43852 2.14038 3.40959 2.16171L3.18605 2.32658L3.26991 2.59113C3.28079 2.62536 3.2417 2.65375 3.21241 2.63282L2.98635 2.47146L2.7603 2.63282C2.73101 2.65371 2.69201 2.62536 2.7028 2.59113L2.78666 2.32658L2.56312 2.16171C2.53419 2.14033 2.54908 2.09456 2.58507 2.09424L2.86296 2.09213L2.95086 1.82888C2.96215 1.79483 3.01047 1.79483 3.02185 1.82888Z" fill="#F5F5F5"/>
<path d="M3.02185 3.20733L3.10975 3.47057L3.38764 3.47269C3.42363 3.473 3.43852 3.51882 3.40959 3.54016L3.18605 3.70502L3.26991 3.96956C3.28079 4.00379 3.2417 4.03218 3.21241 4.01125L2.98635 3.84989L2.7603 4.01125C2.73101 4.03214 2.69201 4.00384 2.7028 3.96956L2.78666 3.70502L2.56312 3.54016C2.53419 3.51878 2.54908 3.473 2.58507 3.47269L2.86296 3.47057L2.95086 3.20733C2.96215 3.17324 3.01047 3.17324 3.02185 3.20733Z" fill="#F5F5F5"/>
<path d="M3.02185 4.58587L3.10975 4.84911L3.38764 4.85123C3.42363 4.85154 3.43852 4.89736 3.40959 4.9187L3.18605 5.08356L3.26991 5.3481C3.28079 5.38233 3.2417 5.41072 3.21241 5.38979L2.98635 5.22843L2.7603 5.38979C2.73101 5.41068 2.69201 5.38233 2.7028 5.3481L2.78666 5.08356L2.56312 4.9187C2.53419 4.89732 2.54908 4.85154 2.58507 4.85123L2.86296 4.84911L2.95086 4.58587C2.96215 4.55178 3.01047 4.55178 3.02185 4.58587Z" fill="#F5F5F5"/>
<path d="M3.02185 5.96426L3.10975 6.22751L3.38764 6.22962C3.42363 6.22993 3.43852 6.27575 3.40959 6.29709L3.18605 6.46196L3.26991 6.72651C3.28079 6.76074 3.2417 6.78913 3.21241 6.76819L2.98635 6.60683L2.7603 6.76819C2.73101 6.78908 2.69201 6.76074 2.7028 6.72651L2.78666 6.46196L2.56312 6.29709C2.53419 6.27571 2.54908 6.22993 2.58507 6.22962L2.86296 6.22751L2.95086 5.96426C2.96215 5.93021 3.01047 5.93021 3.02185 5.96426Z" fill="#F5F5F5"/>
<path d="M4.09314 1.15338L4.18105 1.41663L4.45893 1.41874C4.49492 1.41906 4.50981 1.46488 4.48089 1.48622L4.25735 1.65108L4.3412 1.91564C4.35209 1.94987 4.313 1.97826 4.28371 1.95733L4.05765 1.79596L3.83159 1.95733C3.8023 1.97822 3.7633 1.94987 3.77409 1.91564L3.85795 1.65108L3.63441 1.48622C3.60548 1.46483 3.62037 1.41906 3.65636 1.41874L3.93425 1.41663L4.02215 1.15338C4.03349 1.11928 4.08176 1.11928 4.09314 1.15338Z" fill="#F5F5F5"/>
<path d="M4.09314 2.53128L4.18105 2.79452L4.45893 2.79663C4.49492 2.79695 4.50981 2.84277 4.48089 2.86411L4.25735 3.02897L4.3412 3.29352C4.35209 3.32775 4.313 3.35614 4.28371 3.33521L4.05765 3.17385L3.83159 3.33521C3.8023 3.3561 3.7633 3.32775 3.77409 3.29352L3.85795 3.02897L3.63441 2.86411C3.60548 2.84272 3.62037 2.79695 3.65636 2.79663L3.93425 2.79452L4.02215 2.53128C4.03349 2.49722 4.08176 2.49722 4.09314 2.53128Z" fill="#F5F5F5"/>
<path d="M4.09314 3.91031L4.18105 4.17356L4.45893 4.17567C4.49492 4.17599 4.50981 4.22181 4.48089 4.24315L4.25735 4.40802L4.3412 4.67258C4.35209 4.70681 4.313 4.7352 4.28371 4.71427L4.05765 4.5529L3.83159 4.71427C3.8023 4.73516 3.7633 4.70681 3.77409 4.67258L3.85795 4.40802L3.63441 4.24315C3.60548 4.22176 3.62037 4.17599 3.65636 4.17567L3.93425 4.17356L4.02215 3.91031C4.03349 3.87625 4.08176 3.87625 4.09314 3.91031Z" fill="#F5F5F5"/>
<path d="M4.09314 5.28827L4.18105 5.55151L4.45893 5.55362C4.49492 5.55394 4.50981 5.59976 4.48089 5.6211L4.25735 5.78596L4.3412 6.05051C4.35209 6.08474 4.313 6.11313 4.28371 6.0922L4.05765 5.93084L3.83159 6.0922C3.8023 6.11309 3.7633 6.08474 3.77409 6.05051L3.85795 5.78596L3.63441 5.6211C3.60548 5.59971 3.62037 5.55394 3.65636 5.55362L3.93425 5.55151L4.02215 5.28827C4.03349 5.25417 4.08176 5.25417 4.09314 5.28827Z" fill="#F5F5F5"/>
<path d="M4.09314 6.66672L4.18105 6.92996L4.45893 6.93207C4.49492 6.93239 4.50981 6.97821 4.48089 6.99955L4.25735 7.16441L4.3412 7.42896C4.35209 7.46319 4.313 7.49158 4.28371 7.47065L4.05765 7.30929L3.83159 7.47065C3.8023 7.49154 3.7633 7.46319 3.77409 7.42896L3.85795 7.16441L3.63441 6.99955C3.60548 6.97816 3.62037 6.93239 3.65636 6.93207L3.93425 6.92996L4.02215 6.66672C4.03349 6.63258 4.08176 6.63258 4.09314 6.66672Z" fill="#F5F5F5"/>
<path d="M5.16442 1.82888L5.25233 2.09213L5.53021 2.09424C5.5662 2.09456 5.58109 2.14038 5.55216 2.16171L5.32862 2.32658L5.41248 2.59113C5.42337 2.62536 5.38427 2.65375 5.35499 2.63282L5.12893 2.47146L4.90287 2.63282C4.87359 2.65371 4.83458 2.62536 4.84538 2.59113L4.92923 2.32658L4.7057 2.16171C4.67677 2.14033 4.69166 2.09456 4.72765 2.09424L5.00553 2.09213L5.09343 1.82888C5.10473 1.79483 5.15304 1.79483 5.16442 1.82888Z" fill="#F5F5F5"/>
<path d="M5.16442 3.20733L5.25233 3.47057L5.53021 3.47269C5.5662 3.473 5.58109 3.51882 5.55216 3.54016L5.32862 3.70502L5.41248 3.96956C5.42337 4.00379 5.38427 4.03218 5.35499 4.01125L5.12893 3.84989L4.90287 4.01125C4.87359 4.03214 4.83458 4.00384 4.84538 3.96956L4.92923 3.70502L4.7057 3.54016C4.67677 3.51878 4.69166 3.473 4.72765 3.47269L5.00553 3.47057L5.09343 3.20733C5.10473 3.17324 5.15304 3.17324 5.16442 3.20733Z" fill="#F5F5F5"/>
<path d="M5.16442 4.58587L5.25233 4.84911L5.53021 4.85123C5.5662 4.85154 5.58109 4.89736 5.55216 4.9187L5.32862 5.08356L5.41248 5.3481C5.42337 5.38233 5.38427 5.41072 5.35499 5.38979L5.12893 5.22843L4.90287 5.38979C4.87359 5.41068 4.83458 5.38233 4.84538 5.3481L4.92923 5.08356L4.7057 4.9187C4.67677 4.89732 4.69166 4.85154 4.72765 4.85123L5.00553 4.84911L5.09343 4.58587C5.10473 4.55178 5.15304 4.55178 5.16442 4.58587Z" fill="#F5F5F5"/>
<path d="M5.16442 5.96426L5.25233 6.22751L5.53021 6.22962C5.5662 6.22993 5.58109 6.27575 5.55216 6.29709L5.32862 6.46196L5.41248 6.72651C5.42337 6.76074 5.38427 6.78913 5.35499 6.76819L5.12893 6.60683L4.90287 6.76819C4.87359 6.78908 4.83458 6.76074 4.84538 6.72651L4.92923 6.46196L4.7057 6.29709C4.67677 6.27571 4.69166 6.22993 4.72765 6.22962L5.00553 6.22751L5.09343 5.96426C5.10473 5.93021 5.15304 5.93021 5.16442 5.96426Z" fill="#F5F5F5"/>
<path d="M6.23674 1.15338L6.32464 1.41663L6.60253 1.41874C6.63852 1.41906 6.65341 1.46488 6.62448 1.48622L6.40094 1.65108L6.4848 1.91564C6.49568 1.94987 6.45659 1.97826 6.4273 1.95733L6.2012 1.79596L5.97514 1.95733C5.94585 1.97822 5.90685 1.94987 5.91765 1.91564L6.0015 1.65108L5.77796 1.48622C5.74904 1.46483 5.76393 1.41906 5.79992 1.41874L6.0778 1.41663L6.1657 1.15338C6.17709 1.11928 6.22536 1.11928 6.23674 1.15338Z" fill="#F5F5F5"/>
<path d="M6.23576 2.53128L6.32366 2.79452L6.60154 2.79663C6.63753 2.79695 6.65242 2.84277 6.6235 2.86411L6.39996 3.02897L6.48381 3.29352C6.4947 3.32775 6.45561 3.35614 6.42632 3.33521L6.20022 3.17385L5.97416 3.33521C5.94488 3.3561 5.90587 3.32775 5.91667 3.29352L6.00052 3.02897L5.77699 2.86411C5.74806 2.84272 5.76295 2.79695 5.79894 2.79663L6.07682 2.79452L6.16472 2.53128C6.17611 2.49722 6.22438 2.49722 6.23576 2.53128Z" fill="#F5F5F5"/>
<path d="M6.23674 3.91031L6.32464 4.17356L6.60253 4.17567C6.63852 4.17599 6.65341 4.22181 6.62448 4.24315L6.40094 4.40802L6.4848 4.67258C6.49568 4.70681 6.45659 4.7352 6.4273 4.71427L6.2012 4.5529L5.97514 4.71427C5.94585 4.73516 5.90685 4.70681 5.91765 4.67258L6.0015 4.40802L5.77796 4.24315C5.74904 4.22176 5.76393 4.17599 5.79992 4.17567L6.0778 4.17356L6.1657 3.91031C6.17709 3.87625 6.22536 3.87625 6.23674 3.91031Z" fill="#F5F5F5"/>
<path d="M6.23674 5.28827L6.32464 5.55151L6.60253 5.55362C6.63852 5.55394 6.65341 5.59976 6.62448 5.6211L6.40094 5.78596L6.4848 6.05051C6.49568 6.08474 6.45659 6.11313 6.4273 6.0922L6.2012 5.93084L5.97514 6.0922C5.94585 6.11309 5.90685 6.08474 5.91765 6.05051L6.0015 5.78596L5.77796 5.6211C5.74904 5.59971 5.76393 5.55394 5.79992 5.55362L6.0778 5.55151L6.1657 5.28827C6.17709 5.25417 6.22536 5.25417 6.23674 5.28827Z" fill="#F5F5F5"/>
<path d="M6.23674 6.66672L6.32464 6.92996L6.60253 6.93207C6.63852 6.93239 6.65341 6.97821 6.62448 6.99955L6.40094 7.16441L6.4848 7.42896C6.49568 7.46319 6.45659 7.49158 6.4273 7.47065L6.2012 7.30929L5.97514 7.47065C5.94585 7.49154 5.90685 7.46319 5.91765 7.42896L6.0015 7.16441L5.77796 6.99955C5.74904 6.97816 5.76393 6.93239 5.79992 6.93207L6.0778 6.92996L6.1657 6.66672C6.17709 6.63258 6.22536 6.63258 6.23674 6.66672Z" fill="#F5F5F5"/>
<path d="M7.30603 1.82888L7.39394 2.09213L7.67183 2.09424C7.70781 2.09456 7.72271 2.14038 7.69378 2.16171L7.47024 2.32658L7.55409 2.59113C7.56498 2.62536 7.52589 2.65375 7.4966 2.63282L7.27054 2.47146L7.04448 2.63282C7.01519 2.65371 6.97619 2.62536 6.98698 2.59113L7.07084 2.32658L6.8473 2.16171C6.81837 2.14033 6.83326 2.09456 6.86925 2.09424L7.14714 2.09213L7.23504 1.82888C7.24643 1.79483 7.29465 1.79483 7.30603 1.82888Z" fill="#F5F5F5"/>
<path d="M7.30603 3.20733L7.39394 3.47057L7.67183 3.47269C7.70781 3.473 7.72271 3.51882 7.69378 3.54016L7.47024 3.70502L7.55409 3.96956C7.56498 4.00379 7.52589 4.03218 7.4966 4.01125L7.27054 3.84989L7.04448 4.01125C7.01519 4.03214 6.97619 4.00384 6.98698 3.96956L7.07084 3.70502L6.8473 3.54016C6.81837 3.51878 6.83326 3.473 6.86925 3.47269L7.14714 3.47057L7.23504 3.20733C7.24643 3.17324 7.29465 3.17324 7.30603 3.20733Z" fill="#F5F5F5"/>
<path d="M7.30603 4.58587L7.39394 4.84911L7.67183 4.85123C7.70781 4.85154 7.72271 4.89736 7.69378 4.9187L7.47024 5.08356L7.55409 5.3481C7.56498 5.38233 7.52589 5.41072 7.4966 5.38979L7.27054 5.22843L7.04448 5.38979C7.01519 5.41068 6.97619 5.38233 6.98698 5.3481L7.07084 5.08356L6.8473 4.9187C6.81837 4.89732 6.83326 4.85154 6.86925 4.85123L7.14714 4.84911L7.23504 4.58587C7.24643 4.55178 7.29465 4.55178 7.30603 4.58587Z" fill="#F5F5F5"/>
<path d="M7.30603 5.96426L7.39394 6.22751L7.67183 6.22962C7.70781 6.22993 7.72271 6.27575 7.69378 6.29709L7.47024 6.46196L7.55409 6.72651C7.56498 6.76074 7.52589 6.78913 7.4966 6.76819L7.27054 6.60683L7.04448 6.76819C7.01519 6.78908 6.97619 6.76074 6.98698 6.72651L7.07084 6.46196L6.8473 6.29709C6.81837 6.27571 6.83326 6.22993 6.86925 6.22962L7.14714 6.22751L7.23504 5.96426C7.24643 5.93021 7.29465 5.93021 7.30603 5.96426Z" fill="#F5F5F5"/>
<path d="M8.37829 1.15338L8.4662 1.41663L8.74408 1.41874C8.78007 1.41906 8.79496 1.46488 8.76604 1.48622L8.5425 1.65108L8.62635 1.91564C8.63724 1.94987 8.59815 1.97826 8.56886 1.95733L8.3428 1.79596L8.11674 1.95733C8.08745 1.97822 8.04845 1.94987 8.05925 1.91564L8.1431 1.65108L7.91956 1.48622C7.89064 1.46483 7.90553 1.41906 7.94152 1.41874L8.2194 1.41663L8.30731 1.15338C8.3186 1.11928 8.36691 1.11928 8.37829 1.15338Z" fill="#F5F5F5"/>
<path d="M8.37829 2.53128L8.4662 2.79452L8.74408 2.79663C8.78007 2.79695 8.79496 2.84277 8.76604 2.86411L8.5425 3.02897L8.62635 3.29352C8.63724 3.32775 8.59815 3.35614 8.56886 3.33521L8.3428 3.17385L8.11674 3.33521C8.08745 3.3561 8.04845 3.32775 8.05925 3.29352L8.1431 3.02897L7.91956 2.86411C7.89064 2.84272 7.90553 2.79695 7.94152 2.79663L8.2194 2.79452L8.30731 2.53128C8.3186 2.49722 8.36691 2.49722 8.37829 2.53128Z" fill="#F5F5F5"/>
<path d="M8.37829 3.91031L8.4662 4.17356L8.74408 4.17567C8.78007 4.17599 8.79496 4.22181 8.76604 4.24315L8.5425 4.40802L8.62635 4.67258C8.63724 4.70681 8.59815 4.7352 8.56886 4.71427L8.3428 4.5529L8.11674 4.71427C8.08745 4.73516 8.04845 4.70681 8.05925 4.67258L8.1431 4.40802L7.91956 4.24315C7.89064 4.22176 7.90553 4.17599 7.94152 4.17567L8.2194 4.17356L8.30731 3.91031C8.3186 3.87625 8.36691 3.87625 8.37829 3.91031Z" fill="#F5F5F5"/>
<path d="M8.37829 5.28827L8.4662 5.55151L8.74408 5.55362C8.78007 5.55394 8.79496 5.59976 8.76604 5.6211L8.5425 5.78596L8.62635 6.05051C8.63724 6.08474 8.59815 6.11313 8.56886 6.0922L8.3428 5.93084L8.11674 6.0922C8.08745 6.11309 8.04845 6.08474 8.05925 6.05051L8.1431 5.78596L7.91956 5.6211C7.89064 5.59971 7.90553 5.55394 7.94152 5.55362L8.2194 5.55151L8.30731 5.28827C8.3186 5.25417 8.36691 5.25417 8.37829 5.28827Z" fill="#F5F5F5"/>
<path d="M8.37829 6.66672L8.4662 6.92996L8.74408 6.93207C8.78007 6.93239 8.79496 6.97821 8.76604 6.99955L8.5425 7.16441L8.62635 7.42896C8.63724 7.46319 8.59815 7.49158 8.56886 7.47065L8.3428 7.30929L8.11674 7.47065C8.08745 7.49154 8.04845 7.46319 8.05925 7.42896L8.1431 7.16441L7.91956 6.99955C7.89064 6.97816 7.90553 6.93239 7.94152 6.93207L8.2194 6.92996L8.30731 6.66672C8.3186 6.63258 8.36691 6.63258 8.37829 6.66672Z" fill="#F5F5F5"/>
<path d="M9.44958 1.82888L9.53749 2.09213L9.81537 2.09424C9.85136 2.09456 9.86625 2.14038 9.83733 2.16171L9.61379 2.32658L9.69764 2.59113C9.70853 2.62536 9.66943 2.65375 9.64015 2.63282L9.41409 2.47146L9.18803 2.63282C9.15874 2.65371 9.11974 2.62536 9.13054 2.59113L9.21439 2.32658L8.99085 2.16171C8.96193 2.14033 8.97682 2.09456 9.01281 2.09424L9.29069 2.09213L9.37859 1.82888C9.38993 1.79483 9.43825 1.79483 9.44958 1.82888Z" fill="#F5F5F5"/>
<path d="M9.44958 3.20733L9.53749 3.47057L9.81537 3.47269C9.85136 3.473 9.86625 3.51882 9.83733 3.54016L9.61379 3.70502L9.69764 3.96956C9.70853 4.00379 9.66943 4.03218 9.64015 4.01125L9.41409 3.84989L9.18803 4.01125C9.15874 4.03214 9.11974 4.00384 9.13054 3.96956L9.21439 3.70502L8.99085 3.54016C8.96193 3.51878 8.97682 3.473 9.01281 3.47269L9.29069 3.47057L9.37859 3.20733C9.38993 3.17324 9.43825 3.17324 9.44958 3.20733Z" fill="#F5F5F5"/>
<path d="M9.44958 4.58587L9.53749 4.84911L9.81537 4.85123C9.85136 4.85154 9.86625 4.89736 9.83733 4.9187L9.61379 5.08356L9.69764 5.3481C9.70853 5.38233 9.66943 5.41072 9.64015 5.38979L9.41409 5.22843L9.18803 5.38979C9.15874 5.41068 9.11974 5.38233 9.13054 5.3481L9.21439 5.08356L8.99085 4.9187C8.96193 4.89732 8.97682 4.85154 9.01281 4.85123L9.29069 4.84911L9.37859 4.58587C9.38993 4.55178 9.43825 4.55178 9.44958 4.58587Z" fill="#F5F5F5"/>
<path d="M9.44958 5.96426L9.53749 6.22751L9.81537 6.22962C9.85136 6.22993 9.86625 6.27575 9.83733 6.29709L9.61379 6.46196L9.69764 6.72651C9.70853 6.76074 9.66943 6.78913 9.64015 6.76819L9.41409 6.60683L9.18803 6.76819C9.15874 6.78908 9.11974 6.76074 9.13054 6.72651L9.21439 6.46196L8.99085 6.29709C8.96193 6.27571 8.97682 6.22993 9.01281 6.22962L9.29069 6.22751L9.37859 5.96426C9.38993 5.93021 9.43825 5.93021 9.44958 5.96426Z" fill="#F5F5F5"/>
<path d="M10.5199 1.15338L10.6078 1.41663L10.8857 1.41874C10.9217 1.41906 10.9366 1.46488 10.9077 1.48622L10.6841 1.65108L10.768 1.91564C10.7789 1.94987 10.7398 1.97826 10.7105 1.95733L10.4844 1.79596L10.2583 1.95733C10.2291 1.97822 10.1901 1.94987 10.2009 1.91564L10.2847 1.65108L10.0612 1.48622C10.0322 1.46483 10.0471 1.41906 10.0831 1.41874L10.361 1.41663L10.4489 1.15338C10.4603 1.11928 10.5085 1.11928 10.5199 1.15338Z" fill="#F5F5F5"/>
<path d="M10.5199 2.53128L10.6078 2.79452L10.8857 2.79663C10.9217 2.79695 10.9366 2.84277 10.9077 2.86411L10.6841 3.02897L10.768 3.29352C10.7789 3.32775 10.7398 3.35614 10.7105 3.33521L10.4844 3.17385L10.2583 3.33521C10.2291 3.3561 10.1901 3.32775 10.2009 3.29352L10.2847 3.02897L10.0612 2.86411C10.0322 2.84272 10.0471 2.79695 10.0831 2.79663L10.361 2.79452L10.4489 2.53128C10.4603 2.49722 10.5085 2.49722 10.5199 2.53128Z" fill="#F5F5F5"/>
<path d="M10.5199 3.91031L10.6078 4.17356L10.8857 4.17567C10.9217 4.17599 10.9366 4.22181 10.9077 4.24315L10.6841 4.40802L10.768 4.67258C10.7789 4.70681 10.7398 4.7352 10.7105 4.71427L10.4844 4.5529L10.2583 4.71427C10.2291 4.73516 10.1901 4.70681 10.2009 4.67258L10.2847 4.40802L10.0612 4.24315C10.0322 4.22176 10.0471 4.17599 10.0831 4.17567L10.361 4.17356L10.4489 3.91031C10.4603 3.87625 10.5085 3.87625 10.5199 3.91031Z" fill="#F5F5F5"/>
<path d="M10.5199 5.28827L10.6078 5.55151L10.8857 5.55362C10.9217 5.55394 10.9366 5.59976 10.9077 5.6211L10.6841 5.78596L10.768 6.05051C10.7789 6.08474 10.7398 6.11313 10.7105 6.0922L10.4844 5.93084L10.2583 6.0922C10.2291 6.11309 10.1901 6.08474 10.2009 6.05051L10.2847 5.78596L10.0612 5.6211C10.0322 5.59971 10.0471 5.55394 10.0831 5.55362L10.361 5.55151L10.4489 5.28827C10.4603 5.25417 10.5085 5.25417 10.5199 5.28827Z" fill="#F5F5F5"/>
<path d="M10.5199 6.66672L10.6078 6.92996L10.8857 6.93207C10.9217 6.93239 10.9366 6.97821 10.9077 6.99955L10.6841 7.16441L10.768 7.42896C10.7789 7.46319 10.7398 7.49158 10.7105 7.47065L10.4844 7.30929L10.2583 7.47065C10.2291 7.49154 10.1901 7.46319 10.2009 7.42896L10.2847 7.16441L10.0612 6.99955C10.0322 6.97816 10.0471 6.93239 10.0831 6.93207L10.361 6.92996L10.4489 6.66672C10.4603 6.63258 10.5085 6.63258 10.5199 6.66672Z" fill="#F5F5F5"/>
</svg>
